<svg width="54" height="54" viewBox="0 0 54 54" fill="none" xmlns="http://www.w3.org/2000/svg">
<path d="M37.5 16V16.5H38H53.5V27V53.5H0.5V0.5H27H37.5V16ZM38.5 15.5V1.20711L52.7929 15.5H38.5Z" stroke="#0E0E0E"/>
<line x1="14" y1="21.5" x2="40" y2="21.5" stroke="#0E0E0E"/>
<line x1="20" y1="27.5" x2="34" y2="27.5" stroke="#0E0E0E"/>
<line x1="10" y1="33.5" x2="44" y2="33.5" stroke="#0E0E0E"/>
<line x1="17" y1="39.5" x2="37" y2="39.5" stroke="#0E0E0E"/>
<line x1="14" y1="45.5" x2="40" y2="45.5" stroke="#0E0E0E"/>
</svg>
