<svg width="18" height="18" viewBox="0 0 18 18" fill="none" xmlns="http://www.w3.org/2000/svg">
<path d="M9 17C13.4182 17 17 13.4182 17 9C17 4.58172 13.4182 1 9 1C4.58172 1 1 4.58172 1 9C1 13.4182 4.58172 17 9 17Z" stroke="black" stroke-linecap="round" stroke-linejoin="round"/>
<path d="M6.6001 6.60001C6.6001 3.79998 11.0001 3.80001 11.0001 6.60001C11.0001 8.60001 9.0001 8.19993 9.0001 10.5999" stroke="black" stroke-linecap="round" stroke-linejoin="round"/>
<path d="M9 13.8081L9.008 13.7992" stroke="black" stroke-linecap="round" stroke-linejoin="round"/>
</svg>
