[
  {
    "question": {
      "id": "rcc-custom-9614a185-99d6-44c7-b311-779a646e24ab",
      "type": "boolean",
      "translations": {
        "de": "Hast du heute irgendwelche Stimmen gehört?",
        "fr": "Avez-vous entendu des voix aujourd'hui?"
      },
      "options": [
        {
          "value": true,
          "translations": {
            "de": "Ja",
            "fr": "Oui"
          }
        },
        {
          "value": false,
          "translations": {
            "de": "Nein",
            "fr": "Non"
          }
        }
      ],
      "tags": ["rcc-long-text"]
    },
    "datapoints": [
      {
        "value": true,
        "note": "",
        "date": "2023-04-25"
      },
      {
        "value": false,
        "note": "",
        "date": "2023-04-23"
      },
      {
        "value": false,
        "note": "",
        "date": "2023-04-22"
      },
      {
        "value": true,
        "note": "",
        "date": "2023-04-12"
      },
      {
        "value": false,
        "note": "",
        "date": "2023-03-28"
      },
      {
        "value": true,
        "note": "",
        "date": "2023-03-29"
      },
      {
        "value": false,
        "note": "",
        "date": "2023-03-30"
      },
      {
        "value": false,
        "note": "",
        "date": "2023-03-31"
      },
      {
        "value": false,
        "note": "",
        "date": "2023-04-03"
      },
      {
        "value": true,
        "note": "",
        "date": "2023-04-04"
      },
      {
        "value": true,
        "note": "",
        "date": "2023-04-05"
      },
      {
        "value": false,
        "note": "",
        "date": "2023-04-10"
      },
      {
        "value": false,
        "note": "",
        "date": "2023-04-11"
      },
      {
        "value": false,
        "note": "",
        "date": "2023-04-13"
      },
      {
        "value": false,
        "note": "",
        "date": "2023-04-14"
      },
      {
        "value": false,
        "note": "",
        "date": "2023-04-15"
      },
      {
        "value": true,
        "note": "",
        "date": "2023-04-16"
      },
      {
        "value": false,
        "note": "",
        "date": "2023-04-21"
      },
      {
        "value": true,
        "note": "",
        "date": "2023-04-17"
      },
      {
        "value": true,
        "note": "",
        "date": "2023-04-06"
      },
      {
        "value": false,
        "note": "",
        "date": "2023-04-07"
      }
    ]
  },
  {
    "question": {
      "id": "a2f5a4df-3f3c-4f9b-9c24-bbfadaebfeef",
      "type": "boolean",
      "meaning": "Haben Sie Ihre Medikamente wie geplant eingenommen?",
      "translations": {
        "en": "Did you take your medication as planned?",
        "de": "Haben Sie Ihre Medikamente wie geplant eingenommen?"
      },
      "options": [
        {
          "value": true,
          "translations": {
            "en": "Yes",
            "de": "Ja"
          }
        },
        {
          "value": false,
          "translations": {
            "en": "No",
            "de": "Nein"
          }
        }
      ],
      "tags": ["rcc-medication"]
    },
    "datapoints": [
      {
        "value": true,
        "note": "",
        "date": "2023-04-25"
      },
      {
        "value": true,
        "note": "",
        "date": "2023-04-23"
      },
      {
        "value": true,
        "note": "",
        "date": "2023-04-22"
      },
      {
        "value": false,
        "note": "",
        "date": "2023-04-12"
      },
      {
        "value": true,
        "note": "",
        "date": "2023-03-28"
      },
      {
        "value": true,
        "note": "",
        "date": "2023-03-29"
      },
      {
        "value": true,
        "note": "",
        "date": "2023-03-30"
      },
      {
        "value": true,
        "note": "",
        "date": "2023-03-31"
      },
      {
        "value": false,
        "note": "",
        "date": "2023-04-03"
      },
      {
        "value": false,
        "note": "",
        "date": "2023-04-04"
      },
      {
        "value": false,
        "note": "",
        "date": "2023-04-05"
      },
      {
        "value": true,
        "note": "",
        "date": "2023-04-10"
      },
      {
        "value": true,
        "note": "",
        "date": "2023-04-11"
      },
      {
        "value": true,
        "note": "",
        "date": "2023-04-13"
      },
      {
        "value": true,
        "note": "",
        "date": "2023-04-14"
      },
      {
        "value": true,
        "note": "",
        "date": "2023-04-15"
      },
      {
        "value": true,
        "note": "",
        "date": "2023-04-16"
      },
      {
        "value": true,
        "note": "",
        "date": "2023-04-21"
      },
      {
        "value": true,
        "note": "",
        "date": "2023-04-17"
      },
      {
        "value": false,
        "note": "",
        "date": "2023-04-06"
      },
      {
        "value": false,
        "note": "",
        "date": "2023-04-07"
      },
      {
        "value": false,
        "note": "",
        "date": "2023-04-08"
      }
    ]
  },
  {
    "question": {
      "id": "rcc-curated-default-00-daily-note",
      "type": "string",
      "meaning": "Was ist heute sonst noch passiert?",
      "translations": {
        "en": "What else happened today?",
        "de": "Was ist heute sonst noch passiert?"
      },
      "tags": ["rcc-long-text", "rcc-category-daily", "rcc-category-default"]
    },
    "datapoints": [
      {
        "value": "im Urlaub ",
        "note": "",
        "date": "2023-04-12"
      },
      {
        "value": "Toller Tag mit der Familie ",
        "note": "",
        "date": "2023-03-28"
      },
      {
        "value": "Verkatert",
        "note": "",
        "date": "2023-04-03"
      },
      {
        "value": "Keine Energie",
        "note": "",
        "date": "2023-04-09"
      },
      {
        "value": "Taller Lauf!",
        "note": "",
        "date": "2023-04-14"
      },
      {
        "value": "Verletzungen beim Laufen... :/",
        "note": "",
        "date": "2023-04-07"
      }
    ]
  }
]
