<svg version="1.2" xmlns="http://www.w3.org/2000/svg" viewBox="0 0 1300 1300" width="1300" height="1300">
	<style>
		.s0 { fill: #504af0 }
		.s1 { fill: #ffffff }
	</style>
	<path class="s0" d="m-350-350h2000v2000h-2000z"/>
	<g>
		<g>
			<path fill-rule="evenodd" class="s1" d="m129.4 896.7v32h-20v-86.5h28.1q9.4 0 16 2 6.6 1.9 10.8 5.3 4.1 3.5 6.1 8.2 1.8 4.6 1.8 10.2 0 4.2-1.1 7.9-1.1 3.7-3.3 6.9-2.2 3.2-5.5 5.7-3.2 2.5-7.4 4.1 2 1 3.7 2.5 1.8 1.4 3.1 3.6l18.4 30.1h-18.2q-5-0.1-7.2-3.8l-14.4-25.1q-0.9-1.7-2.2-2.4-1.2-0.7-3.6-0.7zm0-13.8h8.1q4.1 0 7-1.1 2.9-1 4.7-2.9 1.8-1.8 2.7-4.3 0.8-2.4 0.8-5.3 0-5.7-3.7-8.9-3.7-3.2-11.5-3.2h-8.1c0 0 0 25.7 0 25.7z"/>
			<path class="s1" d="m267.6 842.2v15.5h-35.5v20.1h27.2v14.9h-27.2v20.5h35.5v15.5h-55.6v-86.5z"/>
			<path class="s1" d="m360.8 906.3q0.7 0 1.4 0.3 0.7 0.2 1.4 0.9l7.9 8.3q-5.2 6.9-13.1 10.3-7.8 3.5-18.5 3.5-9.9 0-17.7-3.3-7.8-3.4-13.2-9.3-5.5-5.9-8.4-14-2.9-8.1-2.9-17.6 0-9.7 3.4-17.7 3.3-8.1 9.2-14 6-5.9 14.3-9.2 8.3-3.2 18.3-3.2 4.9 0 9.2 0.8 4.3 0.9 8 2.4 3.8 1.5 6.9 3.6 3.2 2.1 5.6 4.7l-6.8 9.1q-0.6 0.8-1.5 1.5-0.9 0.7-2.5 0.7-1.1 0-2-0.5-1-0.5-2.1-1.2-1-0.7-2.3-1.5-1.3-0.8-3-1.4-1.8-0.7-4.1-1.2-2.3-0.5-5.5-0.5-5.5 0-10 2-4.5 1.9-7.7 5.5-3.2 3.6-5 8.7-1.8 5.1-1.8 11.4 0 6.7 1.8 11.8 1.8 5.2 4.9 8.7 3.1 3.5 7.3 5.4 4.1 1.8 8.9 1.8 2.7 0 4.9-0.3 2.3-0.2 4.2-0.9 1.9-0.6 3.7-1.7 1.7-1 3.5-2.5 0.7-0.6 1.6-1 0.8-0.4 1.7-0.4z"/>
			<path fill-rule="evenodd" class="s1" d="m489.7 885.4q0 9.4-3.3 17.5-3.2 8-9.1 14-5.8 5.9-14.1 9.3-8.3 3.4-18.4 3.4-10 0-18.4-3.4-8.3-3.4-14.2-9.3-5.9-6-9.1-14-3.2-8.1-3.2-17.5 0-9.4 3.2-17.4 3.2-8.1 9.1-14 5.9-6 14.2-9.3 8.3-3.4 18.4-3.4 10.1 0 18.4 3.4 8.3 3.4 14.1 9.3 5.9 6 9.1 14 3.3 8.1 3.3 17.4zm-20.5 0q0-6.4-1.7-11.5-1.7-5.2-4.8-8.7-3.1-3.6-7.6-5.5-4.5-1.9-10.3-1.9-5.8 0-10.3 1.9-4.5 1.9-7.7 5.5-3.1 3.5-4.7 8.7-1.7 5.1-1.7 11.5 0 6.5 1.7 11.6 1.6 5.1 4.7 8.7 3.2 3.5 7.7 5.4 4.5 1.9 10.3 1.9 5.8 0 10.3-1.9 4.5-1.9 7.6-5.4 3.1-3.6 4.8-8.7 1.7-5.1 1.7-11.6z"/>
			<path class="s1" d="m512.3 842.2h16.2q2.6 0 4.2 1.2 1.7 1.2 2.4 3.2l16.7 46.2q1.2 3 2.3 6.6 1.2 3.6 2.2 7.5 0.8-3.9 1.9-7.5 1.1-3.6 2.2-6.6l16.6-46.2q0.6-1.7 2.3-3 1.7-1.4 4.2-1.4h16.3l-34.7 86.4h-18.1z"/>
			<path class="s1" d="m686.2 842.2v15.5h-35.4v20.1h27.1v14.9h-27.1v20.5h35.4v15.5h-55.6v-86.5z"/>
			<path fill-rule="evenodd" class="s1" d="m741.4 896.7v32h-20v-86.5h28.1q9.3 0 16 2 6.6 1.9 10.7 5.3 4.2 3.5 6.1 8.2 1.9 4.6 1.9 10.2 0 4.2-1.1 7.9-1.1 3.7-3.4 6.9-2.2 3.2-5.4 5.7-3.3 2.5-7.5 4.1 2.1 1 3.8 2.5 1.8 1.4 3.1 3.6l18.3 30.1h-18.1q-5-0.1-7.2-3.8l-14.4-25.1q-0.9-1.7-2.2-2.4-1.3-0.7-3.6-0.7zm0-13.8h8.1q4.1 0 6.9-1.1 2.9-1 4.7-2.9 1.9-1.8 2.7-4.3 0.8-2.4 0.8-5.3 0-5.7-3.7-8.9-3.7-3.2-11.5-3.2h-8c0 0 0 25.7 0 25.7z"/>
			<path class="s1" d="m867 895.8v32.8h-20v-32.8l-31.3-53.6h17.6q2.6 0 4.2 1.3 1.5 1.2 2.5 3.1l12.2 25.1q1.5 3 2.7 5.6 1.3 2.5 2.2 5 0.9-2.5 2.1-5.1 1.3-2.5 2.7-5.5l12.1-25.1q0.4-0.8 1-1.6 0.6-0.8 1.4-1.4 0.8-0.6 1.9-1 1-0.4 2.2-0.4h17.8z"/>
			<path class="s1" d="m991.1 911.1q0.9 0 1.7 0.8l4.5 4.9q-5.2 6-12.6 9.4-7.5 3.4-18 3.4-9.2 0-16.6-3.2-7.5-3.1-12.8-8.9-5.3-5.7-8.2-13.7-2.9-8-2.9-17.6 0-9.6 3.1-17.6 3.1-8.1 8.8-13.8 5.6-5.8 13.5-8.9 7.8-3.2 17.3-3.2 9.4 0 16.2 2.9 6.8 2.9 12 7.9l-3.7 5.3q-0.4 0.6-0.9 1-0.6 0.3-1.6 0.3-0.8 0-1.6-0.5-0.9-0.6-2.1-1.4-1.1-0.8-2.7-1.8-1.6-0.9-3.8-1.8-2.2-0.8-5.1-1.4-2.9-0.5-6.7-0.5-6.9 0-12.5 2.3-5.7 2.4-9.8 6.7-4.1 4.3-6.4 10.6-2.2 6.2-2.2 13.9 0 7.9 2.2 14.2 2.3 6.2 6.3 10.5 3.9 4.3 9.3 6.6 5.4 2.2 11.6 2.2 3.8 0 6.9-0.4 3-0.5 5.6-1.4 2.5-1 4.8-2.4 2.2-1.5 4.4-3.5 1-0.9 2-0.9z"/>
			<path fill-rule="evenodd" class="s1" d="m1106.1 928.7h-8.9q-1.5-0.1-2.5-0.8-0.9-0.8-1.4-2l-8-20.5h-38.1l-8 20.5q-0.4 1.1-1.4 1.9-1 0.8-2.5 0.9h-8.9l34-85h11.7zm-55.7-31.6h31.7l-13.3-34.6q-1.3-3.2-2.6-8-0.6 2.4-1.2 4.5-0.6 2-1.3 3.6z"/>
			<path class="s1" d="m1190.6 843.7v9.6h-27.4v75.3h-11.5v-75.3h-27.6v-9.6z"/>
		</g>
		<g>
			<path class="s1" d="m789.8 545v32c0 8.8-7.2 15.9-15.9 15.9h-84.1c-4.4 0-7.9 3.5-7.9 7.9v84.1c0 8.8-7.1 15.9-15.9 15.9h-32c-8.8 0-15.9-7.1-15.9-15.9v-84.1c0-4.4-3.6-7.9-7.9-7.9h-84.1c-8.8 0-15.9-7.1-15.9-15.9v-32c0-8.8 7.1-15.9 15.9-15.9h84.1c4.3 0 7.9-3.5 7.9-7.9v-84.1c0-8.7 7.1-15.9 15.9-15.9h32c8.8 0 15.9 7.2 15.9 15.9v84.1c0 4.4 3.5 7.9 7.9 7.9h84.1c8.8 0 15.9 7.1 15.9 15.9z"/>
			<g>
				<path class="s1" d="m523.4 370.5c22.7 1.5 43.6 7.7 60.1 24.4 3.9 4 6.9 8.9 10.4 13.3 0.4 0.6 0.7 1.3 1 2 3 6.1 0.9 10.1-5.8 11.1-4.7 0.7-9.4 1-14.1 1.8-9.4 1.4-17.8 5.4-25.2 11.3-2.6 2-5.1 4.2-7.7 6.3-1.3 1-2.6 2-4.1 2.7-3.5 1.9-6.6 1.1-8.9-2.1-0.6-0.9-1.2-1.9-1.6-3-5.3-15.3-10.6-30.6-15.6-46-1-3.1-1.4-6.4-1.6-9.6-0.5-7.6 3-11.4 10.6-12.1 0.8-0.1 1.7-0.1 2.5-0.1z"/>
				<path class="s1" d="m776.4 370.4c1.3 0.1 2.2 0.1 3.1 0.2 7.3 0.8 10.9 4.5 10.2 11.8-0.5 5.6-1.7 11.2-3.4 16.5-4.1 12.8-8.7 25.4-13.3 38.1-0.6 1.7-1.6 3.4-2.7 4.9-1.5 2.3-4.7 3.2-7.4 1.9-2.3-1.2-4.4-2.9-6.5-4.4-4.6-3.4-9-7.1-13.8-10.1-8.2-5.2-17.6-6.7-27.1-7.5-2.5-0.2-5-0.6-7.3-1.2-3.5-1-5.1-3.8-4.1-7.4 0.5-1.8 1.3-3.7 2.3-5.3 9.7-15.9 23.8-26.2 41.3-32.1 9.5-3.2 19.2-4.6 28.7-5.4z"/>
			</g>
		</g>
	</g>
</svg>
