<svg width="54" height="54" viewBox="0 0 54 54" fill="none" xmlns="http://www.w3.org/2000/svg">
	<rect width="54" height="54" rx="27" fill="#000"/>
	<path fill-rule="evenodd" clip-rule="evenodd" d="M14.4144 24.383C13.6334 25.164 13.6334 26.4303 14.4144 27.2114L22.8997 35.6967C23.6807 36.4777 24.9471 36.4777 25.7281 35.6967V35.6967C26.5092 34.9156 26.5092 33.6493 25.7281 32.8682L17.2428 24.383C16.4618 23.6019 15.1954 23.6019 14.4144 24.383V24.383Z" fill="#fff"/>
	<path fill-rule="evenodd" clip-rule="evenodd" d="M23.4147 32.5545C22.6337 33.3356 22.6337 34.6019 23.4147 35.383V35.383C24.1958 36.164 25.4621 36.164 26.2431 35.383L40.3853 21.2408C41.1663 20.4598 41.1663 19.1934 40.3853 18.4124V18.4124C39.6042 17.6314 38.3379 17.6314 37.5568 18.4124L23.4147 32.5545Z" fill="#fff"/>
</svg>
