<svg width="54" height="54" viewBox="0 0 54 54" fill="none" xmlns="http://www.w3.org/2000/svg">
<circle cx="27" cy="27" r="26.5" stroke="#0E0E0E"/>
<path d="M14 40.4C14 40.4 18.32 35 26.96 35C35.6 35 39.92 40.4 39.92 40.4" stroke="#0E0E0E" stroke-linecap="square" stroke-linejoin="round"/>
<path d="M18 20C17.4477 20 17 19.1046 17 18C17 16.8954 17.4477 16 18 16C18.5523 16 19 16.8954 19 18C19 19.1046 18.5523 20 18 20Z" fill="#0E0E0E" stroke="#0E0E0E" stroke-linecap="round" stroke-linejoin="round"/>
<path d="M36 20C35.4478 20 35 19.1046 35 18C35 16.8954 35.4478 16 36 16C36.5522 16 37 16.8954 37 18C37 19.1046 36.5522 20 36 20Z" fill="#0E0E0E" stroke="#0E0E0E" stroke-linecap="round" stroke-linejoin="round"/>
</svg>
