<svg width="54" height="54" viewBox="0 0 54 54" fill="none" xmlns="http://www.w3.org/2000/svg">
<rect x="0.5" y="0.5" height="53.5" width="53.5" stroke="#0E0E0E"/>
<line x1="11" y1="7.5" x2="43" y2="7.5" stroke="#0E0E0E"/>
<line x1="26" y1="30.5" x2="42" y2="30.5" stroke="#0E0E0E"/>
<line x1="26" y1="18.5" x2="42" y2="18.5" stroke="#0E0E0E"/>
<line x1="26" y1="42.5" x2="42" y2="42.5" stroke="#0E0E0E"/>
<circle cx="14" cy="30" r="3.5" stroke="#0E0E0E"/>
<circle cx="14" cy="18" r="3.5" stroke="#0E0E0E"/>
<circle cx="14" cy="42" r="3.5" stroke="#0E0E0E"/>
</svg>