<svg width="54" height="54" viewBox="0 0 54 54" fill="none" xmlns="http://www.w3.org/2000/svg">
<style type="text/css">
  g#arrow {
    animation: spin 2s infinite linear;
    transform-origin: center;
  }
  @keyframes spin {
    0% { transform: rotate(0deg); }
    100% { transform: rotate(360deg); }
  }
</style>
<path id="page" d="M37.5 0.5L53.5 16.5V53.5H0.5V0.5Z" stroke="#0E0E0E"/>
<g id="arrow">
	<path id="arrow-line" d="M41.6651 25.5999C39.1899 19.9491 33.5374 16 26.9602 16C18.6432 16 11.8047 22.3146 11 30.3999" stroke="black" stroke-linecap="round" stroke-linejoin="round"/>
	<path id="arrow-head" d="M34 25.9999H41.0573C41.5889 25.9999 42.0197 25.5701 42.0197 25.0399V18" stroke="black" stroke-linecap="round" stroke-linejoin="round"/>
</g>
</svg>
